<mxfile host="app.diagrams.net" modified="2024-06-26T06:01:09.375Z" agent="Mozilla/5.0 (X11; Linux x86_64; rv:109.0) Gecko/20100101 Firefox/115.0" etag="twNskHlZZpSqFVUweWU0" version="24.6.2" type="device">
  <diagram name="Page-1" id="JpgkNxoafgRXEAtdEcsz">
    <mxGraphModel dx="1195" dy="648" grid="1" gridSize="10" guides="1" tooltips="1" connect="1" arrows="1" fold="1" page="0" pageScale="1" pageWidth="850" pageHeight="1100" math="0" shadow="0">
      <root>
        <mxCell id="0" />
        <mxCell id="1" parent="0" />
        <mxCell id="bkbJ8_PQEqu1jrIXwf3A-37" style="edgeStyle=orthogonalEdgeStyle;rounded=0;orthogonalLoop=1;jettySize=auto;html=1;entryX=1;entryY=0.5;entryDx=0;entryDy=0;startArrow=classic;startFill=1;endArrow=none;endFill=0;" parent="1" source="bkbJ8_PQEqu1jrIXwf3A-1" target="bkbJ8_PQEqu1jrIXwf3A-14" edge="1">
          <mxGeometry relative="1" as="geometry" />
        </mxCell>
        <mxCell id="bkbJ8_PQEqu1jrIXwf3A-1" value="&lt;div&gt;proteome&lt;/div&gt;&lt;div&gt;fasta&lt;br&gt;&lt;/div&gt;" style="whiteSpace=wrap;html=1;shape=mxgraph.basic.document;fillColor=#dae8fc;strokeColor=#6c8ebf;" parent="1" vertex="1">
          <mxGeometry x="98.00000000000001" y="80" width="100" height="100" as="geometry" />
        </mxCell>
        <mxCell id="bkbJ8_PQEqu1jrIXwf3A-2" value="&lt;div&gt;genomic features annotation GFF&lt;br&gt;&lt;/div&gt;" style="whiteSpace=wrap;html=1;shape=mxgraph.basic.document;fillColor=#dae8fc;strokeColor=#6c8ebf;" parent="1" vertex="1">
          <mxGeometry x="98.00000000000001" y="190" width="100" height="100" as="geometry" />
        </mxCell>
        <mxCell id="bkbJ8_PQEqu1jrIXwf3A-3" value="blastp all-against-all" style="points=[[0.25,0,0],[0.5,0,0],[0.75,0,0],[1,0.25,0],[1,0.5,0],[1,0.75,0],[0.75,1,0],[0.5,1,0],[0.25,1,0],[0,0.75,0],[0,0.5,0],[0,0.25,0]];shape=mxgraph.bpmn.task;whiteSpace=wrap;rectStyle=rounded;size=10;html=1;container=1;expand=0;collapsible=0;taskMarker=abstract;" parent="1" vertex="1">
          <mxGeometry x="228.00000000000006" y="90" width="120" height="80" as="geometry" />
        </mxCell>
        <mxCell id="bkbJ8_PQEqu1jrIXwf3A-27" style="edgeStyle=orthogonalEdgeStyle;rounded=0;orthogonalLoop=1;jettySize=auto;html=1;exitX=0.5;exitY=1;exitDx=0;exitDy=0;exitPerimeter=0;" parent="1" source="bkbJ8_PQEqu1jrIXwf3A-4" target="bkbJ8_PQEqu1jrIXwf3A-5" edge="1">
          <mxGeometry relative="1" as="geometry" />
        </mxCell>
        <mxCell id="bkbJ8_PQEqu1jrIXwf3A-33" style="edgeStyle=orthogonalEdgeStyle;rounded=0;orthogonalLoop=1;jettySize=auto;html=1;endArrow=none;endFill=0;startArrow=classic;startFill=1;" parent="1" source="bkbJ8_PQEqu1jrIXwf3A-4" edge="1">
          <mxGeometry relative="1" as="geometry">
            <mxPoint x="752.17" y="170" as="targetPoint" />
          </mxGeometry>
        </mxCell>
        <mxCell id="bkbJ8_PQEqu1jrIXwf3A-4" value="find homologs" style="points=[[0.25,0,0],[0.5,0,0],[0.75,0,0],[1,0.25,0],[1,0.5,0],[1,0.75,0],[0.75,1,0],[0.5,1,0],[0.25,1,0],[0,0.75,0],[0,0.5,0],[0,0.25,0]];shape=mxgraph.bpmn.task;whiteSpace=wrap;rectStyle=rounded;size=10;html=1;container=1;expand=0;collapsible=0;taskMarker=abstract;" parent="1" vertex="1">
          <mxGeometry x="692.17" y="180" width="120" height="80" as="geometry" />
        </mxCell>
        <mxCell id="bkbJ8_PQEqu1jrIXwf3A-30" style="edgeStyle=orthogonalEdgeStyle;rounded=0;orthogonalLoop=1;jettySize=auto;html=1;" parent="1" source="bkbJ8_PQEqu1jrIXwf3A-5" target="bkbJ8_PQEqu1jrIXwf3A-29" edge="1">
          <mxGeometry relative="1" as="geometry" />
        </mxCell>
        <mxCell id="bkbJ8_PQEqu1jrIXwf3A-5" value="&lt;div&gt;similarity graph &lt;br&gt;&lt;/div&gt;&lt;div&gt;abc format&lt;br&gt;&lt;/div&gt;" style="whiteSpace=wrap;html=1;shape=mxgraph.basic.document" parent="1" vertex="1">
          <mxGeometry x="702.17" y="280" width="100" height="100" as="geometry" />
        </mxCell>
        <mxCell id="bkbJ8_PQEqu1jrIXwf3A-26" style="edgeStyle=orthogonalEdgeStyle;rounded=0;orthogonalLoop=1;jettySize=auto;html=1;exitX=0.5;exitY=1;exitDx=0;exitDy=0;exitPerimeter=0;" parent="1" source="bkbJ8_PQEqu1jrIXwf3A-13" target="bkbJ8_PQEqu1jrIXwf3A-25" edge="1">
          <mxGeometry relative="1" as="geometry" />
        </mxCell>
        <mxCell id="bkbJ8_PQEqu1jrIXwf3A-13" value="&lt;div&gt;merge blastp HSPs&lt;/div&gt;" style="points=[[0.25,0,0],[0.5,0,0],[0.75,0,0],[1,0.25,0],[1,0.5,0],[1,0.75,0],[0.75,1,0],[0.5,1,0],[0.25,1,0],[0,0.75,0],[0,0.5,0],[0,0.25,0]];shape=mxgraph.bpmn.task;whiteSpace=wrap;rectStyle=rounded;size=10;html=1;container=1;expand=0;collapsible=0;taskMarker=abstract;" parent="1" vertex="1">
          <mxGeometry x="692.17" y="40" width="120" height="80" as="geometry" />
        </mxCell>
        <mxCell id="bkbJ8_PQEqu1jrIXwf3A-14" value="" style="ellipse;" parent="1" vertex="1">
          <mxGeometry x="38.000000000000014" y="115" width="30" height="30" as="geometry" />
        </mxCell>
        <mxCell id="bkbJ8_PQEqu1jrIXwf3A-15" value="" style="html=1;whiteSpace=wrap;aspect=fixed;shape=isoRectangle;" parent="1" vertex="1">
          <mxGeometry x="602.17" y="121.5" width="28.34" height="17" as="geometry" />
        </mxCell>
        <mxCell id="bkbJ8_PQEqu1jrIXwf3A-18" style="edgeStyle=orthogonalEdgeStyle;rounded=0;orthogonalLoop=1;jettySize=auto;html=1;exitX=0;exitY=0.5;exitDx=0;exitDy=0;exitPerimeter=0;entryX=0.502;entryY=0.033;entryDx=0;entryDy=0;entryPerimeter=0;startArrow=classic;startFill=1;endArrow=none;endFill=0;" parent="1" source="bkbJ8_PQEqu1jrIXwf3A-13" target="bkbJ8_PQEqu1jrIXwf3A-15" edge="1">
          <mxGeometry relative="1" as="geometry" />
        </mxCell>
        <mxCell id="bkbJ8_PQEqu1jrIXwf3A-19" value="keep all isoformes" style="text;html=1;align=center;verticalAlign=middle;resizable=0;points=[];autosize=1;strokeColor=none;fillColor=none;" parent="1" vertex="1">
          <mxGeometry x="618" y="130" width="120" height="30" as="geometry" />
        </mxCell>
        <mxCell id="bkbJ8_PQEqu1jrIXwf3A-22" style="edgeStyle=orthogonalEdgeStyle;rounded=0;orthogonalLoop=1;jettySize=auto;html=1;entryX=0.491;entryY=0.971;entryDx=0;entryDy=0;entryPerimeter=0;startArrow=classic;startFill=1;endArrow=none;endFill=0;exitX=0.006;exitY=0.559;exitDx=0;exitDy=0;exitPerimeter=0;" parent="1" source="bkbJ8_PQEqu1jrIXwf3A-25" target="bkbJ8_PQEqu1jrIXwf3A-15" edge="1">
          <mxGeometry relative="1" as="geometry">
            <mxPoint x="692.17" y="170" as="sourcePoint" />
            <Array as="points">
              <mxPoint x="616.17" y="161" />
            </Array>
          </mxGeometry>
        </mxCell>
        <mxCell id="bkbJ8_PQEqu1jrIXwf3A-23" value="merge" style="text;html=1;align=center;verticalAlign=middle;resizable=0;points=[];autosize=1;strokeColor=none;fillColor=none;" parent="1" vertex="1">
          <mxGeometry x="612.17" y="80" width="60" height="30" as="geometry" />
        </mxCell>
        <mxCell id="bkbJ8_PQEqu1jrIXwf3A-25" value="" style="html=1;whiteSpace=wrap;aspect=fixed;shape=isoRectangle;" parent="1" vertex="1">
          <mxGeometry x="738" y="151.5" width="28.34" height="17" as="geometry" />
        </mxCell>
        <mxCell id="bkbJ8_PQEqu1jrIXwf3A-29" value="graph clustering" style="points=[[0.25,0,0],[0.5,0,0],[0.75,0,0],[1,0.25,0],[1,0.5,0],[1,0.75,0],[0.75,1,0],[0.5,1,0],[0.25,1,0],[0,0.75,0],[0,0.5,0],[0,0.25,0]];shape=mxgraph.bpmn.task;whiteSpace=wrap;rectStyle=rounded;size=10;html=1;container=1;expand=0;collapsible=0;taskMarker=abstract;" parent="1" vertex="1">
          <mxGeometry x="556.3399999999999" y="290" width="120" height="80" as="geometry" />
        </mxCell>
        <mxCell id="bkbJ8_PQEqu1jrIXwf3A-52" style="edgeStyle=orthogonalEdgeStyle;rounded=0;orthogonalLoop=1;jettySize=auto;html=1;" parent="1" source="bkbJ8_PQEqu1jrIXwf3A-31" target="bkbJ8_PQEqu1jrIXwf3A-50" edge="1">
          <mxGeometry relative="1" as="geometry" />
        </mxCell>
        <mxCell id="bkbJ8_PQEqu1jrIXwf3A-34" value="sort blastp HSP" style="points=[[0.25,0,0],[0.5,0,0],[0.75,0,0],[1,0.25,0],[1,0.5,0],[1,0.75,0],[0.75,1,0],[0.5,1,0],[0.25,1,0],[0,0.75,0],[0,0.5,0],[0,0.25,0]];shape=mxgraph.bpmn.task;whiteSpace=wrap;rectStyle=rounded;size=10;html=1;container=1;expand=0;collapsible=0;taskMarker=abstract;" parent="1" vertex="1">
          <mxGeometry x="488.00000000000006" y="90" width="100" height="80" as="geometry" />
        </mxCell>
        <mxCell id="bkbJ8_PQEqu1jrIXwf3A-35" style="edgeStyle=orthogonalEdgeStyle;rounded=0;orthogonalLoop=1;jettySize=auto;html=1;exitX=1;exitY=0.5;exitDx=0;exitDy=0;exitPerimeter=0;entryX=0;entryY=0.5;entryDx=0;entryDy=0;entryPerimeter=0;" parent="1" source="bkbJ8_PQEqu1jrIXwf3A-34" edge="1">
          <mxGeometry relative="1" as="geometry">
            <mxPoint x="602.1700000000001" y="130" as="targetPoint" />
          </mxGeometry>
        </mxCell>
        <mxCell id="bkbJ8_PQEqu1jrIXwf3A-38" style="edgeStyle=orthogonalEdgeStyle;rounded=0;orthogonalLoop=1;jettySize=auto;html=1;entryX=0;entryY=0.5;entryDx=0;entryDy=0;entryPerimeter=0;" parent="1" source="bkbJ8_PQEqu1jrIXwf3A-1" target="bkbJ8_PQEqu1jrIXwf3A-3" edge="1">
          <mxGeometry relative="1" as="geometry" />
        </mxCell>
        <mxCell id="bkbJ8_PQEqu1jrIXwf3A-40" value="&lt;div&gt;blastp tsv&lt;/div&gt;&lt;div&gt;format 6&lt;/div&gt;" style="whiteSpace=wrap;html=1;shape=mxgraph.basic.document" parent="1" vertex="1">
          <mxGeometry x="368.00000000000006" y="80" width="100" height="100" as="geometry" />
        </mxCell>
        <mxCell id="bkbJ8_PQEqu1jrIXwf3A-42" style="edgeStyle=orthogonalEdgeStyle;rounded=0;orthogonalLoop=1;jettySize=auto;html=1;entryX=0;entryY=0.5;entryDx=0;entryDy=0;entryPerimeter=0;" parent="1" source="bkbJ8_PQEqu1jrIXwf3A-3" target="bkbJ8_PQEqu1jrIXwf3A-40" edge="1">
          <mxGeometry relative="1" as="geometry" />
        </mxCell>
        <mxCell id="bkbJ8_PQEqu1jrIXwf3A-43" style="edgeStyle=orthogonalEdgeStyle;rounded=0;orthogonalLoop=1;jettySize=auto;html=1;" parent="1" source="bkbJ8_PQEqu1jrIXwf3A-40" edge="1">
          <mxGeometry relative="1" as="geometry">
            <mxPoint x="488.00000000000006" y="130" as="targetPoint" />
            <Array as="points">
              <mxPoint x="488.00000000000006" y="130" />
            </Array>
          </mxGeometry>
        </mxCell>
        <mxCell id="bkbJ8_PQEqu1jrIXwf3A-49" value="" style="group" parent="1" vertex="1" connectable="0">
          <mxGeometry x="600" y="400" width="120" height="140" as="geometry" />
        </mxCell>
        <mxCell id="bkbJ8_PQEqu1jrIXwf3A-46" value="gene family mapping" style="whiteSpace=wrap;html=1;shape=mxgraph.basic.document;fillColor=#f5f5f5;strokeColor=#666666;fontColor=#333333;" parent="bkbJ8_PQEqu1jrIXwf3A-49" vertex="1">
          <mxGeometry x="20" width="100" height="100" as="geometry" />
        </mxCell>
        <mxCell id="bkbJ8_PQEqu1jrIXwf3A-47" value="gene family mapping" style="whiteSpace=wrap;html=1;shape=mxgraph.basic.document;fillColor=#f5f5f5;strokeColor=#666666;fontColor=#333333;" parent="bkbJ8_PQEqu1jrIXwf3A-49" vertex="1">
          <mxGeometry x="10" y="20" width="100" height="100" as="geometry" />
        </mxCell>
        <mxCell id="bkbJ8_PQEqu1jrIXwf3A-48" value="gene lists" style="whiteSpace=wrap;html=1;shape=mxgraph.basic.document;fillColor=#f5f5f5;strokeColor=#666666;fontColor=#333333;" parent="bkbJ8_PQEqu1jrIXwf3A-49" vertex="1">
          <mxGeometry y="40" width="100" height="100" as="geometry" />
        </mxCell>
        <mxCell id="bkbJ8_PQEqu1jrIXwf3A-55" style="edgeStyle=orthogonalEdgeStyle;rounded=0;orthogonalLoop=1;jettySize=auto;html=1;" parent="1" source="bkbJ8_PQEqu1jrIXwf3A-50" target="bkbJ8_PQEqu1jrIXwf3A-51" edge="1">
          <mxGeometry relative="1" as="geometry" />
        </mxCell>
        <mxCell id="bkbJ8_PQEqu1jrIXwf3A-50" value="detect TAGs" style="points=[[0.25,0,0],[0.5,0,0],[0.75,0,0],[1,0.25,0],[1,0.5,0],[1,0.75,0],[0.75,1,0],[0.5,1,0],[0.25,1,0],[0,0.75,0],[0,0.5,0],[0,0.25,0]];shape=mxgraph.bpmn.task;whiteSpace=wrap;rectStyle=rounded;size=10;html=1;container=1;expand=0;collapsible=0;taskMarker=abstract;" parent="1" vertex="1">
          <mxGeometry x="234.17000000000002" y="290" width="120" height="80" as="geometry" />
        </mxCell>
        <mxCell id="bkbJ8_PQEqu1jrIXwf3A-51" value="TAG list" style="whiteSpace=wrap;html=1;shape=mxgraph.basic.document;fillColor=#d5e8d4;strokeColor=#82b366;" parent="1" vertex="1">
          <mxGeometry x="244.17000000000002" y="410" width="100" height="100" as="geometry" />
        </mxCell>
        <mxCell id="bkbJ8_PQEqu1jrIXwf3A-54" style="edgeStyle=orthogonalEdgeStyle;rounded=0;orthogonalLoop=1;jettySize=auto;html=1;entryX=1;entryY=0.5;entryDx=0;entryDy=0;entryPerimeter=0;" parent="1" source="bkbJ8_PQEqu1jrIXwf3A-29" target="bkbJ8_PQEqu1jrIXwf3A-31" edge="1">
          <mxGeometry relative="1" as="geometry" />
        </mxCell>
        <mxCell id="bkbJ8_PQEqu1jrIXwf3A-56" style="edgeStyle=orthogonalEdgeStyle;rounded=0;orthogonalLoop=1;jettySize=auto;html=1;entryX=0.5;entryY=0;entryDx=0;entryDy=0;entryPerimeter=0;" parent="1" source="bkbJ8_PQEqu1jrIXwf3A-2" target="bkbJ8_PQEqu1jrIXwf3A-50" edge="1">
          <mxGeometry relative="1" as="geometry" />
        </mxCell>
        <mxCell id="h6bkPwYCgD8vkjuKjxHi-1" style="edgeStyle=orthogonalEdgeStyle;rounded=0;orthogonalLoop=1;jettySize=auto;html=1;entryX=0.382;entryY=0.023;entryDx=0;entryDy=0;entryPerimeter=0;" edge="1" parent="1" source="bkbJ8_PQEqu1jrIXwf3A-31" target="h6bkPwYCgD8vkjuKjxHi-2">
          <mxGeometry relative="1" as="geometry">
            <mxPoint x="482" y="460" as="targetPoint" />
            <Array as="points" />
          </mxGeometry>
        </mxCell>
        <mxCell id="h6bkPwYCgD8vkjuKjxHi-2" value="create gene pairs" style="points=[[0.25,0,0],[0.5,0,0],[0.75,0,0],[1,0.25,0],[1,0.5,0],[1,0.75,0],[0.75,1,0],[0.5,1,0],[0.25,1,0],[0,0.75,0],[0,0.5,0],[0,0.25,0]];shape=mxgraph.bpmn.task;whiteSpace=wrap;rectStyle=rounded;size=10;html=1;container=1;expand=0;collapsible=0;taskMarker=abstract;" vertex="1" parent="1">
          <mxGeometry x="390.34" y="420" width="120" height="80" as="geometry" />
        </mxCell>
        <mxCell id="h6bkPwYCgD8vkjuKjxHi-3" style="edgeStyle=orthogonalEdgeStyle;rounded=0;orthogonalLoop=1;jettySize=auto;html=1;entryX=0;entryY=0.5;entryDx=0;entryDy=0;entryPerimeter=0;" edge="1" parent="1" source="bkbJ8_PQEqu1jrIXwf3A-51" target="h6bkPwYCgD8vkjuKjxHi-2">
          <mxGeometry relative="1" as="geometry" />
        </mxCell>
        <mxCell id="h6bkPwYCgD8vkjuKjxHi-4" style="edgeStyle=orthogonalEdgeStyle;rounded=0;orthogonalLoop=1;jettySize=auto;html=1;entryX=-0.006;entryY=0.2;entryDx=0;entryDy=0;entryPerimeter=0;" edge="1" parent="1" source="h6bkPwYCgD8vkjuKjxHi-2" target="bkbJ8_PQEqu1jrIXwf3A-48">
          <mxGeometry relative="1" as="geometry" />
        </mxCell>
        <mxCell id="h6bkPwYCgD8vkjuKjxHi-6" style="edgeStyle=orthogonalEdgeStyle;rounded=0;orthogonalLoop=1;jettySize=auto;html=1;exitX=1;exitY=0.5;exitDx=0;exitDy=0;exitPerimeter=0;entryX=0.5;entryY=0;entryDx=0;entryDy=0;entryPerimeter=0;jumpStyle=arc;" edge="1" parent="1">
          <mxGeometry relative="1" as="geometry">
            <mxPoint x="198.31" y="239.99" as="sourcePoint" />
            <mxPoint x="450.6499999999999" y="419.99" as="targetPoint" />
            <Array as="points">
              <mxPoint x="510" y="240" />
              <mxPoint x="510" y="390" />
              <mxPoint x="451" y="390" />
            </Array>
          </mxGeometry>
        </mxCell>
        <mxCell id="bkbJ8_PQEqu1jrIXwf3A-31" value="gene family mapping" style="whiteSpace=wrap;html=1;shape=mxgraph.basic.document" parent="1" vertex="1">
          <mxGeometry x="386.17" y="280" width="100" height="100" as="geometry" />
        </mxCell>
      </root>
    </mxGraphModel>
  </diagram>
</mxfile>
