%!PS-Adobe-3.0 EPSF-3.0
%%Creator: cairo 1.16.0 (https://cairographics.org)
%%CreationDate: Thu May 30 09:40:52 2024
%%Pages: 1
%%DocumentData: Clean7Bit
%%LanguageLevel: 2
%%BoundingBox: 0 0 1136 1870
%%EndComments
%%BeginProlog
50 dict begin
/q { gsave } bind def
/Q { grestore } bind def
/cm { 6 array astore concat } bind def
/w { setlinewidth } bind def
/J { setlinecap } bind def
/j { setlinejoin } bind def
/M { setmiterlimit } bind def
/d { setdash } bind def
/m { moveto } bind def
/l { lineto } bind def
/c { curveto } bind def
/h { closepath } bind def
/re { exch dup neg 3 1 roll 5 3 roll moveto 0 rlineto
      0 exch rlineto 0 rlineto closepath } bind def
/S { stroke } bind def
/f { fill } bind def
/f* { eofill } bind def
/n { newpath } bind def
/W { clip } bind def
/W* { eoclip } bind def
/BT { } bind def
/ET { } bind def
/BDC { mark 3 1 roll /BDC pdfmark } bind def
/EMC { mark /EMC pdfmark } bind def
/cairo_store_point { /cairo_point_y exch def /cairo_point_x exch def } def
/Tj { show currentpoint cairo_store_point } bind def
/TJ {
  {
    dup
    type /stringtype eq
    { show } { -0.001 mul 0 cairo_font_matrix dtransform rmoveto } ifelse
  } forall
  currentpoint cairo_store_point
} bind def
/cairo_selectfont { cairo_font_matrix aload pop pop pop 0 0 6 array astore
    cairo_font exch selectfont cairo_point_x cairo_point_y moveto } bind def
/Tf { pop /cairo_font exch def /cairo_font_matrix where
      { pop cairo_selectfont } if } bind def
/Td { matrix translate cairo_font_matrix matrix concatmatrix dup
      /cairo_font_matrix exch def dup 4 get exch 5 get cairo_store_point
      /cairo_font where { pop cairo_selectfont } if } bind def
/Tm { 2 copy 8 2 roll 6 array astore /cairo_font_matrix exch def
      cairo_store_point /cairo_font where { pop cairo_selectfont } if } bind def
/g { setgray } bind def
/rg { setrgbcolor } bind def
/d1 { setcachedevice } bind def
/cairo_data_source {
  CairoDataIndex CairoData length lt
    { CairoData CairoDataIndex get /CairoDataIndex CairoDataIndex 1 add def }
    { () } ifelse
} def
/cairo_flush_ascii85_file { cairo_ascii85_file status { cairo_ascii85_file flushfile } if } def
/cairo_image { image cairo_flush_ascii85_file } def
/cairo_imagemask { imagemask cairo_flush_ascii85_file } def
%%EndProlog
%%BeginSetup
%%EndSetup
%%Page: 1 1
%%BeginPageSetup
%%PageBoundingBox: 0 0 1136 1870
%%EndPageSetup
q 0 0 1136 1870 rectclip
1 0 0 -1 0 1870 cm q
1 g
0 0.312 1136 1869.375 re f
0.85098 0.341176 0.341176 rg
0.999666 w
0 J
0 j
[] 0.0 d
4 M q 1 0 0 1 0 0 cm
278.406 1749.727 m 598.301 1749.727 l h
278.406 1749.727 m S Q
q 1 0 0 1 0 0 cm
278.406 1843.695 m 598.301 1843.695 l h
278.406 1843.695 m S Q
1.999331 w
q 1 0 0 1 0 0 cm
277.906 1720.738 318.895 143.949 re S Q
0.584314 0.85098 0.341176 rg
0.999666 w
q 1 0 0 1 0 0 cm
385.371 1431.832 m 609.297 1431.832 l h
385.371 1431.832 m S Q
q 1 0 0 1 0 0 cm
385.371 1489.812 m 609.297 1489.812 l h
385.371 1489.812 m S Q
1.999331 w
q 1 0 0 1 0 0 cm
384.871 1402.844 222.926 129.957 re S Q
0.501961 g
q 1 0 0 1 0 0 cm
392.418 1533.871 m 381.973 1544.586 372.844 1556.57 366.379 1569.789 c 
344.113 1615.281 351.852 1635.227 366.379 1683.75 c 369.098 1692.836 372.855
 1701.875 377.242 1710.621 c S Q
380.422 1709.16 m 382.012 1719.629 l 374.234 1712.43 l h
380.422 1709.16 m f
q 1 0 0 1 0 0 cm
380.422 1709.16 m 382.012 1719.629 l 374.234 1712.43 l h
380.422 1709.16 m S Q
0.85098 0.827451 0.341176 rg
0.999666 w
q 1 0 0 1 0 0 cm
377.375 1599.777 m 679.273 1599.777 l h
377.375 1599.777 m S Q
q 1 0 0 1 0 0 cm
377.375 1639.766 m 679.273 1639.766 l h
377.375 1639.766 m S Q
1.999331 w
q 1 0 0 1 0 0 cm
376.875 1570.789 300.898 111.961 re S Q
0.501961 g
q 1 0 0 1 0 0 cm
509.211 1534.02 m 510.879 1542.496 512.598 1551.184 514.27 1559.672 c S Q
517.719 1559.031 m 516.219 1569.52 l 510.848 1560.391 l h
517.719 1559.031 m f
q 1 0 0 1 0 0 cm
517.719 1559.031 m 516.219 1569.52 l 510.848 1560.391 l h
517.719 1559.031 m S Q
0.341176 0.729412 0.85098 rg
0.999666 w
q 1 0 0 1 0 0 cm
132.457 1281.883 m 422.359 1281.883 l h
132.457 1281.883 m S Q
q 1 0 0 1 0 0 cm
132.457 1321.871 m 422.359 1321.871 l h
132.457 1321.871 m S Q
1.999331 w
q 1 0 0 1 0 0 cm
131.957 1252.895 288.902 111.961 re S Q
0.501961 g
q 1 0 0 1 0 0 cm
354.871 1365.875 m 368.488 1375.582 382.801 1385.801 396.887 1395.855 c
 S Q
399.035 1393.086 m 405.145 1401.742 l 394.969 1398.785 l h
399.035 1393.086 m f
q 1 0 0 1 0 0 cm
399.035 1393.086 m 405.145 1401.742 l 394.969 1398.785 l h
399.035 1393.086 m S Q
0.388235 0.85098 0.341176 rg
0.999666 w
q 1 0 0 1 0 0 cm
111.461 1440.832 m 335.387 1440.832 l h
111.461 1440.832 m S Q
q 1 0 0 1 0 0 cm
111.461 1480.816 m 335.387 1480.816 l h
111.461 1480.816 m S Q
1.999331 w
q 1 0 0 1 0 0 cm
110.961 1411.84 222.926 111.965 re S Q
0.501961 g
q 1 0 0 1 0 0 cm
257.074 1366.098 m 253.176 1377.434 249.035 1389.449 245.039 1401.074 c
 S Q
248.277 1402.414 m 241.719 1410.73 l 241.66 1400.145 l h
248.277 1402.414 m f
q 1 0 0 1 0 0 cm
248.277 1402.414 m 241.719 1410.73 l 241.66 1400.145 l h
248.277 1402.414 m S Q
0.85098 0.533333 0.341176 rg
0.999666 w
q 1 0 0 1 0 0 cm
123.457 1122.938 m 431.355 1122.938 l h
123.457 1122.938 m S Q
q 1 0 0 1 0 0 cm
123.457 1162.922 m 431.355 1162.922 l h
123.457 1162.922 m S Q
1.999331 w
q 1 0 0 1 0 0 cm
122.957 1093.945 306.898 111.965 re S Q
0.501961 g
q 1 0 0 1 0 0 cm
276.406 1207.148 m 276.406 1218.375 276.406 1230.262 276.406 1241.777 c
 S Q
279.906 1241.789 m 276.406 1251.785 l 272.91 1241.789 l h
279.906 1241.789 m f
q 1 0 0 1 0 0 cm
279.906 1241.789 m 276.406 1251.785 l 272.91 1241.789 l h
279.906 1241.789 m S Q
0.341176 0.85098 0.776471 rg
0.999666 w
q 1 0 0 1 0 0 cm
467.344 1281.883 m 690.27 1281.883 l h
467.344 1281.883 m S Q
q 1 0 0 1 0 0 cm
467.344 1321.871 m 690.27 1321.871 l h
467.344 1321.871 m S Q
1.999331 w
q 1 0 0 1 0 0 cm
467.344 1252.895 221.926 111.961 re S Q
0.501961 g
q 1 0 0 1 0 0 cm
548.945 1366.098 m 544.43 1374.734 539.711 1383.77 535.031 1392.727 c S Q
538.109 1394.406 m 530.371 1401.645 l 531.902 1391.156 l h
538.109 1394.406 m f
q 1 0 0 1 0 0 cm
538.109 1394.406 m 530.371 1401.645 l 531.902 1391.156 l h
538.109 1394.406 m S Q
0.341176 0.85098 0.584314 rg
0.999666 w
q 1 0 0 1 0 0 cm
698.266 1599.777 m 1018.16 1599.777 l h
698.266 1599.777 m S Q
q 1 0 0 1 0 0 cm
698.266 1639.766 m 1018.16 1639.766 l h
698.266 1639.766 m S Q
1.999331 w
q 1 0 0 1 0 0 cm
697.766 1570.789 318.895 111.961 re S Q
0.501961 g
q 1 0 0 1 0 0 cm
627.852 1365.984 m 676.383 1420.957 750.258 1504.629 800.98 1562.07 c S Q
803.672 1559.84 m 807.66 1569.648 l 798.422 1564.469 l h
803.672 1559.84 m f
q 1 0 0 1 0 0 cm
803.672 1559.84 m 807.66 1569.648 l 798.422 1564.469 l h
803.672 1559.84 m S Q
0.776471 0.85098 0.341176 rg
0.999666 w
q 1 0 0 1 0 0 cm
491.336 1113.941 m 667.277 1113.941 l h
491.336 1113.941 m S Q
q 1 0 0 1 0 0 cm
491.336 1153.926 m 667.277 1153.926 l h
491.336 1153.926 m S Q
1.999331 w
q 1 0 0 1 0 0 cm
490.836 1084.949 174.941 129.957 re S Q
0.501961 g
q 1 0 0 1 0 0 cm
578.305 1216.125 m 578.305 1224.504 578.305 1233.102 578.305 1241.496 c
 S Q
581.805 1241.629 m 578.305 1251.625 l 574.809 1241.629 l h
581.805 1241.629 m f
q 1 0 0 1 0 0 cm
581.805 1241.629 m 578.305 1251.625 l 574.809 1241.629 l h
581.805 1241.629 m S Q
0.85098 0.729412 0.341176 rg
0.999666 w
q 1 0 0 1 0 0 cm
425.359 928.004 m 733.254 928.004 l h
425.359 928.004 m S Q
q 1 0 0 1 0 0 cm
425.359 1003.977 m 733.254 1003.977 l h
425.359 1003.977 m S Q
1.999331 w
q 1 0 0 1 0 0 cm
424.859 899.012 306.895 147.949 re S Q
0.501961 g
q 1 0 0 1 0 0 cm
578.305 1048.184 m 578.305 1056.59 578.305 1065.168 578.305 1073.582 c S Q
581.805 1073.762 m 578.305 1083.762 l 574.809 1073.762 l h
581.805 1073.762 m f
q 1 0 0 1 0 0 cm
581.805 1073.762 m 578.305 1083.762 l 574.809 1073.762 l h
581.805 1073.762 m S Q
0.341176 0.533333 0.85098 rg
0.999666 w
q 1 0 0 1 0 0 cm
598.301 34.301 m 924.191 34.301 l h
598.301 34.301 m S Q
q 1 0 0 1 0 0 cm
598.301 74.289 m 924.191 74.289 l h
598.301 74.289 m S Q
1.999331 w
q 1 0 0 1 0 0 cm
597.801 5.312 324.891 111.961 re S Q
0.501961 g
q 1 0 0 1 0 0 cm
641.605 118.375 m 535.41 177.742 396.367 282.367 396.367 423.172 c 396.367
 423.172 396.367 423.172 396.367 620.105 c 396.367 721.051 456.176 821.93
 507.219 889.613 c S Q
510.109 887.637 m 513.387 897.703 l 504.543 891.883 l h
510.109 887.637 m f
q 1 0 0 1 0 0 cm
510.109 887.637 m 513.387 897.703 l 504.543 891.883 l h
510.109 887.637 m S Q
0.678431 0.85098 0.341176 rg
0.999666 w
q 1 0 0 1 0 0 cm
607.297 574.121 m 915.195 574.121 l h
607.297 574.121 m S Q
q 1 0 0 1 0 0 cm
607.297 650.094 m 915.195 650.094 l h
607.297 650.094 m S Q
1.999331 w
q 1 0 0 1 0 0 cm
606.797 545.129 306.898 147.953 re S Q
0.501961 g
q 1 0 0 1 0 0 cm
760.246 118.383 m 760.246 216.309 760.246 418.953 760.246 533.836 c S Q
763.746 533.992 m 760.246 543.992 l 756.746 533.992 l h
763.746 533.992 m f
q 1 0 0 1 0 0 cm
763.746 533.992 m 760.246 543.992 l 756.746 533.992 l h
763.746 533.992 m S Q
0.85098 0.631373 0.341176 rg
0.999666 w
q 1 0 0 1 0 0 cm
425.359 397.18 m 733.254 397.18 l h
425.359 397.18 m S Q
q 1 0 0 1 0 0 cm
425.359 437.168 m 733.254 437.168 l h
425.359 437.168 m S Q
1.999331 w
q 1 0 0 1 0 0 cm
424.859 368.191 306.895 111.961 re S Q
0.501961 g
q 1 0 0 1 0 0 cm
732.016 118.281 m 699.348 183.082 645.633 289.625 611.125 358.062 c S Q
614.223 359.691 m 606.598 367.051 l 607.977 356.543 l h
614.223 359.691 m f
q 1 0 0 1 0 0 cm
614.223 359.691 m 606.598 367.051 l 607.977 356.543 l h
614.223 359.691 m S Q
0.486275 0.85098 0.341176 rg
0.999666 w
q 1 0 0 1 0 0 cm
789.234 370.188 m 1097.133 370.188 l h
789.234 370.188 m S Q
q 1 0 0 1 0 0 cm
789.234 464.156 m 1097.133 464.156 l h
789.234 464.156 m S Q
1.999331 w
q 1 0 0 1 0 0 cm
788.734 341.199 306.898 165.945 re S Q
0.501961 g
q 1 0 0 1 0 0 cm
923.992 86.492 m 1001.387 101.629 1081.906 124.043 1105.129 154.262 c 1145.738
 207.113 1135.32 244.789 1105.129 304.211 c 1100.043 314.238 1093.664 323.613
 1086.398 332.352 c S Q
1089.027 334.66 m 1079.809 339.867 l 1083.766 330.051 l h
1089.027 334.66 m f
q 1 0 0 1 0 0 cm
1089.027 334.66 m 1079.809 339.867 l 1083.766 330.051 l h
1089.027 334.66 m S Q
0.341176 0.85098 0.678431 rg
0.999666 w
q 1 0 0 1 0 0 cm
789.234 184.25 m 1097.133 184.25 l h
789.234 184.25 m S Q
q 1 0 0 1 0 0 cm
789.234 224.238 m 1097.133 224.238 l h
789.234 224.238 m S Q
1.999331 w
q 1 0 0 1 0 0 cm
788.734 155.262 306.898 147.949 re S Q
0.501961 g
q 1 0 0 1 0 0 cm
821.844 118.473 m 832.062 127.789 842.84 137.617 853.566 147.402 c S Q
855.945 144.844 m 860.973 154.172 l 851.234 150.012 l h
855.945 144.844 m f
q 1 0 0 1 0 0 cm
855.945 144.844 m 860.973 154.172 l 851.234 150.012 l h
855.945 144.844 m S Q
0.341176 0.435294 0.85098 rg
0.999666 w
q 1 0 0 1 0 0 cm
633.289 760.059 m 839.219 760.059 l h
633.289 760.059 m S Q
q 1 0 0 1 0 0 cm
633.289 800.047 m 839.219 800.047 l h
633.289 800.047 m S Q
1.999331 w
q 1 0 0 1 0 0 cm
632.789 731.066 204.93 129.957 re S Q
0.501961 g
q 1 0 0 1 0 0 cm
676.812 862.184 m 668.555 871.391 659.988 880.938 651.504 890.395 c S Q
654 892.855 m 644.723 897.953 l 648.793 888.176 l h
654 892.855 m f
q 1 0 0 1 0 0 cm
654 892.855 m 644.723 897.953 l 648.793 888.176 l h
654 892.855 m S Q
q 1 0 0 1 0 0 cm
749.648 694.301 m 748.43 702.797 747.191 711.465 745.98 719.98 c S Q
749.438 720.48 m 744.562 729.879 l 742.512 719.492 l h
749.438 720.48 m f
q 1 0 0 1 0 0 cm
749.438 720.48 m 744.562 729.879 l 742.512 719.492 l h
749.438 720.48 m S Q
q 1 0 0 1 0 0 cm
578.305 481.371 m 578.305 577.57 578.305 774.312 578.305 887.246 c S Q
581.805 887.574 m 578.305 897.574 l 574.809 887.574 l h
581.805 887.574 m f
q 1 0 0 1 0 0 cm
581.805 887.574 m 578.305 897.574 l 574.809 887.574 l h
581.805 887.574 m S Q
q 1 0 0 1 0 0 cm
631.18 481.23 m 647.473 498.527 665.766 517.918 683.352 536.562 c S Q
685.992 534.266 m 690.301 543.93 l 680.902 539.062 l h
685.992 534.266 m f
q 1 0 0 1 0 0 cm
685.992 534.266 m 690.301 543.93 l 680.902 539.062 l h
685.992 534.266 m S Q
q 1 0 0 1 0 0 cm
863.711 508.395 m 854.902 517.73 845.938 527.227 837.16 536.543 c S Q
839.559 539.094 m 830.164 543.973 l 834.473 534.293 l h
839.559 539.094 m f
q 1 0 0 1 0 0 cm
839.559 539.094 m 830.164 543.973 l 834.473 534.293 l h
839.559 539.094 m S Q
q 1 0 0 1 0 0 cm
942.184 304.281 m 942.184 312.68 942.184 321.324 942.184 329.934 c S Q
945.684 330.004 m 942.184 340 l 938.688 330.004 l h
945.684 330.004 m f
q 1 0 0 1 0 0 cm
945.684 330.004 m 942.184 340 l 938.688 330.004 l h
945.684 330.004 m S Q
q 1 0 0 1 0 0 cm
713.602 1683.848 m 679.371 1697.203 642.535 1711.602 607.258 1725.375 c
 S Q
608.418 1728.676 m 597.84 1729.043 l 605.879 1722.156 l h
608.418 1728.676 m f
q 1 0 0 1 0 0 cm
608.418 1728.676 m 597.84 1729.043 l 605.879 1722.156 l h
608.418 1728.676 m S Q
q 1 0 0 1 0 0 cm
496.363 1684.188 m 491.676 1692.738 486.758 1701.695 481.848 1710.629 c
 S Q
484.828 1712.469 m 476.949 1719.559 l 478.699 1709.102 l h
484.828 1712.469 m f
q 1 0 0 1 0 0 cm
484.828 1712.469 m 476.949 1719.559 l 478.699 1709.102 l h
484.828 1712.469 m S Q
0.341176 0.85098 0.388235 rg
0.999666 w
q 1 0 0 1 0 0 cm
5.5 1599.777 m 319.395 1599.777 l h
5.5 1599.777 m S Q
q 1 0 0 1 0 0 cm
5.5 1639.766 m 319.395 1639.766 l h
5.5 1639.766 m S Q
1.999331 w
q 1 0 0 1 0 0 cm
5 1570.789 312.895 111.961 re S Q
0.501961 g
q 1 0 0 1 0 0 cm
256.016 1683.961 m 272.488 1693.746 289.871 1704.082 307.105 1714.32 c S Q
309.285 1711.551 m 316.094 1719.656 l 305.719 1717.559 l h
309.285 1711.551 m f
q 1 0 0 1 0 0 cm
309.285 1711.551 m 316.094 1719.656 l 305.719 1717.559 l h
309.285 1711.551 m S Q
q 1 0 0 1 0 0 cm
200.582 1525.043 m 196.176 1536.379 191.508 1548.395 186.988 1560.02 c S Q
190.117 1561.629 m 183.238 1569.676 l 183.598 1559.09 l h
190.117 1561.629 m f
q 1 0 0 1 0 0 cm
190.117 1561.629 m 183.238 1569.676 l 183.598 1559.09 l h
190.117 1561.629 m S Q
Q Q
showpage
%%Trailer
end
%%EOF
